{
  "name": "runner_configure_machine_options_map_simple",
  "default_attributes": {
    "cookbook-gitlab-runner": {
      "runners": {
        "test-runner-1": {
          "global": {
            "name": "test-runner-1",
            "executor": "docker+machine"
          },
          "docker": {
            "image": "ruby:2.3"
          },
          "machine": {
            "MachineName": "machine-%s",
            "MachineDriver": "digitalocean"
          },
          "cache": {
            "Type": "gcs",
            "Shared": true,
            "gcs": {
              "CredentialsFile": "/etc/gitlab-runner/service-account.json",
              "BucketName": "runners-cache"
            }
          }
        }
      }
    }
  },
  "run_list": [
    "recipe[cookbook-gitlab-runner::runner_configure]"
  ]
}
