{
  "name": "runner_configure_feature_flags",
  "default_attributes": {
    "cookbook-gitlab-runner": {
      "runners": {
        "test-runner-1": {
          "global": {
            "name": "test-runner-1",
            "executor": "docker+machine",
            "environment": [
              "FF_GITLAB_REGISTRY_HELPER_IMAGE=true"
            ]
          },
          "feature_flags": {
            "FF_SKIP_DOCKER_MACHINE_PROVISION_ON_CREATION_FAILURE": true
          },
          "docker": {
            "image": "ruby:2.3"
          }
        }
      }
    }
  },
  "run_list": [
    "recipe[cookbook-gitlab-runner::runner_configure]"
  ]
}
